…
# use dates to get returns for indexes and benchamrks, I will use the comparison dataframe, that has excess returns to do a crude analysis on excess returns during these periods 

df %>% filter(Date %in% hivol_per_vector) %>% MY_excess_return(.,"FUDP", "TUKXG") 
```

    ## # A tibble: 207 × 2
    ##    date                 FUDP
    ##    <dttm>              <dbl>
    ##  1 2014-12-19 00:00:00 0.998
    ##  2 2014-12-22 00:00:00 0.996
    ##  3 2014-12-23 00:00:00 0.997
    ##  4 2014-12-24 00:00:00 0.997
    ##  5 2014-12-26 00:00:00 0.998
    ##  6 2014-12-29 00:00:00 0.996
    ##  7 2014-12-30 00:00:00 0.995
    ##  8 2014-12-31 00:00:00 0.993
    ##  9 2015-01-20 00:00:00 0.994
    ## 10 2015-01-21 00:00:00 0.990
    ## # ℹ 197 more rows
…
